Linear Regression Analysis: Estimation of the Aggregate Consumption Equation
…
library(readxl)
		library(ggplot2)
		library(PerformanceAnalytics)
		library(broom)
		library(GGally)
		library(modelr)
		library(lars)

	Let us now import our data.

consumption <- read_excel("C:/Users/Rami/Desktop/gndi-con.xlsx")

		consumption

## # A tibble: 23 x 3
		##     Year GNDIPC ConsumptionPC
		##               
		##  1  1994  1712.         1594.
		##  2  1995  1682.         1613.
		##  3  1996  1610.         1541.
		##  4  1997  1709.         1644.
		##  5  1998  1903.         1760.
		##  6  1999  1995.         1826.
		##  7  2000  1796.         1678.
		##  8  2001  1673.         1576.
		##  9  2002  1503.         1372.
		## 10  2003  1471.         1492.
		## # ... with 13 more rows
…
